<?xml version="1.0" encoding="UTF-8"?>
<svg width="133px" height="52px" viewBox="0 0 133 52" version="1.1" xmlns="http://www.w3.org/2000/svg" xmlns:xlink="http://www.w3.org/1999/xlink">
    <!-- Generator: Sketch 49 (51002) - http://www.bohemiancoding.com/sketch -->
    <title>Page 1</title>
    <desc>Created with Sketch.</desc>
    <defs>
        <path d="M4.08391304,0.36375 L0.379565217,3.91333333 C-0.126521739,4.39875 -0.126521739,5.185 0.379565217,5.67 L4.08391304,9.21958333 C4.58956522,9.705 5.41043478,9.705 5.91652174,9.21958333 L9.62043478,5.67 C10.1265217,5.185 10.1265217,4.39875 9.62043478,3.91333333 L5.91652174,0.36375 C5.66347826,0.12125 5.33173913,0 5,0 C4.66826087,0 4.33652174,0.12125 4.08391304,0.36375 Z" id="path-1"></path>
        <path d="M3.91333333,0.36375 L0.36375,3.91333333 C-0.12125,4.39875 -0.12125,5.185 0.36375,5.67 L3.91333333,9.21958333 C4.39875,9.705 5.185,9.705 5.66958333,9.21958333 L9.21958333,5.67 C9.705,5.185 9.705,4.39875 9.21958333,3.91333333 L5.66958333,0.36375 C5.42708333,0.12125 5.10958333,0 4.79166667,0 C4.47375,0 4.15583333,0.12125 3.91333333,0.36375 Z" id="path-3"></path>
        <path d="M26.1567595,2.6595679 L21.0860253,18.5923457 L16.0626329,2.66864198 C15.5616709,1.08067901 14.0988101,0.00172839506 12.4457215,0.000864197531 L12.4444304,0.000864197531 C10.7922025,0.000864197531 9.32934177,1.07851852 8.82751899,2.66604938 L0.180329114,30.0083951 C-0.456632911,32.0224074 0.64643038,34.1759877 2.64425316,34.8180864 C3.0281519,34.9416667 3.41635443,35 3.79853165,35 C5.40686076,35 6.8998481,33.9612346 7.41458228,32.3343827 L12.4401266,16.4439506 L17.4523291,32.331358 C17.9528608,33.9184568 19.4135696,34.9969753 21.0653671,34.9991358 L21.0701013,34.9991358 C22.7197468,34.9991358 24.1808861,33.9249383 24.6852911,32.3408642 L33.3871392,4.99851852 C34.0279747,2.98537037 32.9283544,0.830061728 30.9322532,0.184074074 C30.5462025,0.0591975309 30.1554177,0 29.7710886,0 C28.1649114,0 26.6736456,1.03487654 26.1567595,2.6595679 Z" id="path-5"></path>
        <path d="M8.69557895,2.66604938 L0.177684211,30.0083951 C-0.449684211,32.0224074 0.637052632,34.1759877 2.60505263,34.8180864 C2.98315789,34.9416667 3.36547368,35 3.74189474,35 C5.32631579,35 6.79705263,33.9612346 7.30442105,32.3343827 L15.8223158,4.99203704 C16.4496842,2.97802469 15.3633684,0.824012346 13.3953684,0.182345679 C13.0176842,0.0587654321 12.6345263,0 12.2581053,0 C10.6736842,0 9.20294737,1.03833333 8.69557895,2.66604938 Z" id="path-7"></path>
        <path d="M2.631,0.181481481 C0.645,0.821851852 -0.453,2.9745679 0.178285714,4.98901235 L8.75228571,32.3322222 C9.25028571,33.919321 10.7022857,34.9978395 12.3441429,35 L12.3492857,35 C13.989,35 15.441,33.9258025 15.9428571,32.3421605 L20.9841429,16.4072222 L25.9782857,32.3322222 C26.4754286,33.919321 27.9278571,34.9978395 29.5697143,35 L29.5744286,35 C31.2145714,35 32.6665714,33.9258025 33.168,32.3417284 L41.8187143,4.99895062 C42.4551429,2.98580247 41.3627143,0.830061728 39.3775714,0.184074074 C37.3937143,-0.461049383 35.268,0.646419753 34.6311429,2.6595679 L29.5907143,18.5932099 L24.5965714,2.66864198 C24.0994286,1.08154321 22.647,0.00345679012 21.0051429,0.0012962963 L21.0004286,0.0012962963 C19.3607143,0.0012962963 17.9082857,1.07549383 17.4068571,2.6595679 L12.3655714,18.5940741 L7.37142857,2.66864198 C6.861,1.04006173 5.37642857,0 3.77657143,0 C3.39771429,0 3.012,0.0583333333 2.631,0.181481481 Z" id="path-9"></path>
        <path d="M0,17.3956522 C0,24.9404348 4.8584375,31.3756522 11.627875,33.7804348 C11.6283125,33.7830435 11.6291875,33.7873913 11.6291875,33.7873913 C15.752625,35.1513043 17.3005,28.6691304 12.525625,25.7782609 L12.5265,25.7726087 C9.646,24.0765217 7.7100625,20.9573913 7.7100625,17.3956522 C7.7100625,12.0295652 12.1016875,7.66434783 17.5,7.66434783 C22.8983125,7.66434783 27.2899375,12.0295652 27.2899375,17.3956522 C27.2899375,20.0826087 26.1751875,22.6156522 24.2510625,24.4386957 L23.70375,22.7291304 C23.058875,20.7121739 20.8910625,19.5969565 18.8619375,20.2386957 C16.83325,20.8804348 15.7115,23.0356522 16.3568125,25.0517391 L17.0165625,27.1147826 L17.0148125,27.1147826 L19.4355,34.6834783 C19.436375,34.6834783 19.43725,34.6830435 19.43725,34.6830435 L20.2846875,37.3282609 C20.806625,38.9586957 22.3234375,40 23.9575,40 C24.34425,40 24.7384375,39.9413043 25.127375,39.8186957 C27.155625,39.1769565 28.277375,37.0221739 27.6320625,35.0052174 L26.726875,32.176087 C26.91675,32.0591304 27.1053125,31.94 27.2908125,31.8152174 C32.1181875,28.5717391 35,23.1808696 35,17.3956522 C35,7.80347826 27.1495,0 17.5,0 C7.8505,0 0,7.80347826 0,17.3956522 Z" id="path-11"></path>
    </defs>
    <g id="v.1.1---dizainas" stroke="none" stroke-width="1" fill="none" fill-rule="evenodd">
        <g id="registration" transform="translate(-100.000000, -24.000000)">
            <g id="Page-1" transform="translate(100.000000, 24.000000)">
                <g id="Group-3" transform="translate(7.000000, 0.000000)">
                    <mask id="mask-2" fill="white">
                        <use xlink:href="#path-1"></use>
                    </mask>
                    <g id="Clip-2"></g>
                    <polygon id="Fill-1" fill="#2AAAE1" mask="url(#mask-2)" points="-2.17391304 11.6666667 12.173913 11.6666667 12.173913 -2.08333333 -2.17391304 -2.08333333"></polygon>
                </g>
                <g id="Group-6" transform="translate(18.000000, 0.000000)">
                    <mask id="mask-4" fill="white">
                        <use xlink:href="#path-3"></use>
                    </mask>
                    <g id="Clip-5"></g>
                    <polygon id="Fill-4" fill="#E0203F" mask="url(#mask-4)" points="-2.08333333 11.6666667 11.6666667 11.6666667 11.6666667 -2.08333333 -2.08333333 -2.08333333"></polygon>
                </g>
                <g id="Group-9" transform="translate(99.000000, 12.000000)">
                    <mask id="mask-6" fill="white">
                        <use xlink:href="#path-5"></use>
                    </mask>
                    <g id="Clip-8"></g>
                    <polygon id="Fill-7" fill="#FEFEFE" mask="url(#mask-6)" points="-2.15189873 37.1604938 35.721519 37.1604938 35.721519 -2.16049383 -2.15189873 -2.16049383"></polygon>
                </g>
                <g id="Group-12" transform="translate(82.000000, 12.000000)">
                    <mask id="mask-8" fill="white">
                        <use xlink:href="#path-7"></use>
                    </mask>
                    <g id="Clip-11"></g>
                    <polygon id="Fill-10" fill="#FEFEFE" mask="url(#mask-8)" points="-2.10526316 37.1604938 18.1052632 37.1604938 18.1052632 -2.16049383 -2.10526316 -2.16049383"></polygon>
                </g>
                <g id="Group-15" transform="translate(37.000000, 12.000000)">
                    <mask id="mask-10" fill="white">
                        <use xlink:href="#path-9"></use>
                    </mask>
                    <g id="Clip-14"></g>
                    <polygon id="Fill-13" fill="#FEFEFE" mask="url(#mask-10)" points="-2.14285714 37.1604938 44.1428571 37.1604938 44.1428571 -2.16049383 -2.14285714 -2.16049383"></polygon>
                </g>
                <g id="Group-18" transform="translate(0.000000, 12.000000)">
                    <mask id="mask-12" fill="white">
                        <use xlink:href="#path-11"></use>
                    </mask>
                    <g id="Clip-17"></g>
                    <polygon id="Fill-16" fill="#FEFEFE" mask="url(#mask-12)" points="-2.1875 42.173913 37.1875 42.173913 37.1875 -2.17391304 -2.1875 -2.17391304"></polygon>
                </g>
            </g>
        </g>
    </g>
</svg>